<?xml version="1.0" encoding="UTF-8" standalone="no"?>
<svg
   xmlns:osb="http://www.openswatchbook.org/uri/2009/osb"
   xmlns:dc="http://purl.org/dc/elements/1.1/"
   xmlns:cc="http://creativecommons.org/ns#"
   xmlns:rdf="http://www.w3.org/1999/02/22-rdf-syntax-ns#"
   xmlns:svg="http://www.w3.org/2000/svg"
   xmlns="http://www.w3.org/2000/svg"
   xmlns:sodipodi="http://sodipodi.sourceforge.net/DTD/sodipodi-0.dtd"
   xmlns:inkscape="http://www.inkscape.org/namespaces/inkscape"
   version="1.1"
   width="600mm"
   height="400mm"
   viewBox="0 0 2125.9859 1417.3239"
   id="svg2"
   inkscape:version="0.91 r13725"
   sodipodi:docname="caseplans2.svg">
  <metadata
     id="metadata32">
    <rdf:RDF>
      <cc:Work
         rdf:about="">
        <dc:format>image/svg+xml</dc:format>
        <dc:type
           rdf:resource="http://purl.org/dc/dcmitype/StillImage" />
        <dc:title></dc:title>
      </cc:Work>
    </rdf:RDF>
  </metadata>
  <defs
     id="defs30">
    <linearGradient
       id="linearGradient5757"
       osb:paint="solid">
      <stop
         style="stop-color:#000000;stop-opacity:1;"
         offset="0"
         id="stop5759" />
    </linearGradient>
    <linearGradient
       id="linearGradient5665"
       osb:paint="solid">
      <stop
         style="stop-color:#ff0000;stop-opacity:1;"
         offset="0"
         id="stop5667" />
    </linearGradient>
    <linearGradient
       id="linearGradient5653"
       osb:paint="gradient">
      <stop
         style="stop-color:#ff0000;stop-opacity:1;"
         offset="0"
         id="stop5655" />
      <stop
         style="stop-color:#ff0000;stop-opacity:0;"
         offset="1"
         id="stop5657" />
    </linearGradient>
    <linearGradient
       id="linearGradient4213"
       osb:paint="solid">
      <stop
         style="stop-color:#000000;stop-opacity:1;"
         offset="0"
         id="stop4215" />
    </linearGradient>
  </defs>
  <sodipodi:namedview
     pagecolor="#ffffff"
     bordercolor="#666666"
     borderopacity="1"
     objecttolerance="10"
     gridtolerance="10"
     guidetolerance="10"
     inkscape:pageopacity="0"
     inkscape:pageshadow="2"
     inkscape:window-width="1920"
     inkscape:window-height="1017"
     id="namedview28"
     showgrid="false"
     showguides="true"
     inkscape:document-units="mm"
     inkscape:zoom="0.62922642"
     inkscape:cx="1051.472"
     inkscape:cy="655.7199"
     inkscape:window-x="-8"
     inkscape:window-y="-8"
     inkscape:window-maximized="1"
     inkscape:current-layer="svg2"
     inkscape:snap-object-midpoints="false"
     inkscape:snap-bbox="true"
     inkscape:snap-bbox-edge-midpoints="false"
     inkscape:snap-grids="true"
     inkscape:snap-others="true"
     inkscape:snap-nodes="true"
     inkscape:bbox-nodes="false"
     inkscape:snap-to-guides="false"
     inkscape:bbox-paths="true"
     inkscape:snap-center="false"
     inkscape:snap-text-baseline="false"
     inkscape:snap-midpoints="true">
    <inkscape:grid
       type="xygrid"
       id="grid3360" />
  </sodipodi:namedview>
  <!-- Front-->
  <!-- Back-->
  <!-- Left-->
  <!-- Right-->
  <!-- Top-->
  <!-- Bottom-->
  <g
     transform="matrix(-0.99999994,0,0,-1.0000001,1081.8392,437.43143)"
     id="g12"
     style="fill:none;fill-opacity:1;stroke:#0000ff;stroke-width:0.09000007;stroke-miterlimit:4;stroke-dasharray:none;stroke-opacity:1">
    <polygon
       style="fill:none;fill-opacity:1;stroke:#0000ff;stroke-width:0.09000007;stroke-miterlimit:4;stroke-dasharray:none;stroke-opacity:1"
       points="938.97715,10.62993 938.97715,0 974.41025,0 974.41025,10.62993 1018.7016,10.62993 1018.7016,0 1052.3631,0 1052.3631,44.291375 1062.993,44.291375 1062.993,88.58275 1052.3631,88.58275 1052.3631,124.01585 1062.993,124.01585 1062.993,168.30722 1052.3631,168.30722 1052.3631,212.5986 1018.7016,212.5986 1018.7016,201.96867 974.41025,201.96867 974.41025,212.5986 938.97715,212.5986 938.97715,201.96867 903.54405,201.96867 903.54405,212.5986 868.11095,212.5986 868.11095,201.96867 832.67785,201.96867 832.67785,212.5986 797.24475,212.5986 797.24475,201.96867 761.81165,201.96867 761.81165,212.5986 726.37855,212.5986 726.37855,201.96867 690.94545,201.96867 690.94545,212.5986 655.51235,212.5986 655.51235,201.96867 620.07925,201.96867 620.07925,212.5986 584.64615,212.5986 584.64615,201.96867 549.21305,201.96867 549.21305,212.5986 513.77995,212.5986 513.77995,201.96867 478.34685,201.96867 478.34685,212.5986 442.91375,212.5986 442.91375,201.96867 407.48065,201.96867 407.48065,212.5986 372.04755,212.5986 372.04755,201.96867 336.61445,201.96867 336.61445,212.5986 301.18135,212.5986 301.18135,201.96867 265.74825,201.96867 265.74825,212.5986 230.31515,212.5986 230.31515,201.96867 194.88205,201.96867 194.88205,212.5986 159.44895,212.5986 159.44895,201.96867 124.01585,201.96867 124.01585,212.5986 88.58275,212.5986 88.58275,201.96867 44.291375,201.96867 44.291375,212.5986 10.62993,212.5986 10.62993,168.30722 0,168.30722 0,124.01585 10.62993,124.01585 10.62993,88.58275 0,88.58275 0,44.291375 10.62993,44.291375 10.62993,0 44.291375,0 44.291375,10.62993 88.58275,10.62993 88.58275,0 124.01585,0 124.01585,10.62993 159.44895,10.62993 159.44895,0 194.88205,0 194.88205,10.62993 230.31515,10.62993 230.31515,0 265.74825,0 265.74825,10.62993 301.18135,10.62993 301.18135,0 336.61445,0 336.61445,10.62993 372.04755,10.62993 372.04755,0 407.48065,0 407.48065,10.62993 442.91375,10.62993 442.91375,0 478.34685,0 478.34685,10.62993 513.77995,10.62993 513.77995,0 549.21305,0 549.21305,10.62993 584.64615,10.62993 584.64615,0 620.07925,0 620.07925,10.62993 655.51235,10.62993 655.51235,0 690.94545,0 690.94545,10.62993 726.37855,10.62993 726.37855,0 761.81165,0 761.81165,10.62993 797.24475,10.62993 797.24475,0 832.67785,0 832.67785,10.62993 868.11095,10.62993 868.11095,0 903.54405,0 903.54405,10.62993 "
       id="polygon14"
       transform="matrix(-1,0,0,1,1062.993,0)" />
  </g>
  <g
     transform="matrix(-0.99999994,0,0,-1.0000001,1081.8119,224.60644)"
     id="g12-3"
     style="fill:none;fill-opacity:1;stroke:#0000ff;stroke-width:0.09000007;stroke-miterlimit:4;stroke-dasharray:none;stroke-opacity:1">
    <polygon
       style="fill:none;fill-opacity:1;stroke:#0000ff;stroke-width:0.09000007;stroke-miterlimit:4;stroke-dasharray:none;stroke-opacity:1"
       points="974.41025,10.62993 1018.7016,10.62993 1018.7016,0 1052.3631,0 1052.3631,44.291375 1062.993,44.291375 1062.993,88.58275 1052.3631,88.58275 1052.3631,124.01585 1062.993,124.01585 1062.993,168.30722 1052.3631,168.30722 1052.3631,212.5986 1018.7016,212.5986 1018.7016,201.96867 974.41025,201.96867 974.41025,212.5986 938.97715,212.5986 938.97715,201.96867 903.54405,201.96867 903.54405,212.5986 868.11095,212.5986 868.11095,201.96867 832.67785,201.96867 832.67785,212.5986 797.24475,212.5986 797.24475,201.96867 761.81165,201.96867 761.81165,212.5986 726.37855,212.5986 726.37855,201.96867 690.94545,201.96867 690.94545,212.5986 655.51235,212.5986 655.51235,201.96867 620.07925,201.96867 620.07925,212.5986 584.64615,212.5986 584.64615,201.96867 549.21305,201.96867 549.21305,212.5986 513.77995,212.5986 513.77995,201.96867 478.34685,201.96867 478.34685,212.5986 442.91375,212.5986 442.91375,201.96867 407.48065,201.96867 407.48065,212.5986 372.04755,212.5986 372.04755,201.96867 336.61445,201.96867 336.61445,212.5986 301.18135,212.5986 301.18135,201.96867 265.74825,201.96867 265.74825,212.5986 230.31515,212.5986 230.31515,201.96867 194.88205,201.96867 194.88205,212.5986 159.44895,212.5986 159.44895,201.96867 124.01585,201.96867 124.01585,212.5986 88.58275,212.5986 88.58275,201.96867 44.291375,201.96867 44.291375,212.5986 10.62993,212.5986 10.62993,168.30722 0,168.30722 0,124.01585 10.62993,124.01585 10.62993,88.58275 0,88.58275 0,44.291375 10.62993,44.291375 10.62993,0 44.291375,0 44.291375,10.62993 88.58275,10.62993 88.58275,0 124.01585,0 124.01585,10.62993 159.44895,10.62993 159.44895,0 194.88205,0 194.88205,10.62993 230.31515,10.62993 230.31515,0 265.74825,0 265.74825,10.62993 301.18135,10.62993 301.18135,0 336.61445,0 336.61445,10.62993 372.04755,10.62993 372.04755,0 407.48065,0 407.48065,10.62993 442.91375,10.62993 442.91375,0 478.34685,0 478.34685,10.62993 513.77995,10.62993 513.77995,0 549.21305,0 549.21305,10.62993 584.64615,10.62993 584.64615,0 620.07925,0 620.07925,10.62993 655.51235,10.62993 655.51235,0 690.94545,0 690.94545,10.62993 726.37855,10.62993 726.37855,0 761.81165,0 761.81165,10.62993 797.24475,10.62993 797.24475,0 832.67785,0 832.67785,10.62993 868.11095,10.62993 868.11095,0 903.54405,0 903.54405,10.62993 938.97715,10.62993 938.97715,0 974.41025,0 "
       id="polygon14-6"
       transform="matrix(-1,0,0,1,1062.993,0)" />
  </g>
  <path
     style="fill:none;fill-rule:evenodd;stroke:#0000ff;stroke-width:0.09000007;stroke-linecap:butt;stroke-linejoin:miter;stroke-miterlimit:4;stroke-dasharray:none;stroke-opacity:1"
     d="m 25.343232,331.13183 c 1049.999868,2e-5 1049.999868,2e-5 1049.999868,2e-5"
     id="path4137"
     inkscape:connector-curvature="0" />
  <path
     style="fill:none;fill-rule:evenodd;stroke:#0000ff;stroke-width:0.09000007;stroke-linecap:butt;stroke-linejoin:miter;stroke-miterlimit:4;stroke-dasharray:none;stroke-opacity:1"
     d="m 29.448892,118.13195 c 1041.785208,1e-5 1041.785208,1e-5 1041.785208,1e-5"
     id="path4137-4"
     inkscape:connector-curvature="0" />
  <path
     inkscape:connector-curvature="0"
     id="face0-cut"
     style="fill:none;stroke:#0000ff;stroke-width:0.09000007;stroke-linecap:round;stroke-linejoin:round;stroke-miterlimit:4;stroke-dasharray:none;stroke-opacity:1"
     d="m 1119.1983,1092.8243 0,-10.6299 m -88.5828,0 m 0,10.6299" />
  <path
     inkscape:connector-curvature="0"
     id="face1-cut"
     style="fill:none;stroke:#0000ff;stroke-width:0.09000007;stroke-linecap:round;stroke-linejoin:round;stroke-miterlimit:4;stroke-dasharray:none;stroke-opacity:1"
     d="m 1119.1983,834.1627 -88.5828,-10e-6 m -88.5827,88.58275 0,442.91366 177.1655,0 0,-14.1732 m -88.5828,0 m 0,-10.6299 m 88.5828,0 0,-248.0317 m -88.5828,0 m 0,-10.6299 m 88.5828,0 0,-248.0317" />
  <path
     inkscape:connector-curvature="0"
     id="face2-cut"
     style="fill:none;stroke:#0000ff;stroke-width:0.09000007;stroke-linecap:round;stroke-linejoin:round;stroke-miterlimit:4;stroke-dasharray:none;stroke-opacity:1"
     d="m 1119.1983,1351.4859 0,-10.6299 m -88.5828,0 m 0,10.6299" />
  <path
     inkscape:connector-curvature="0"
     id="face3-cut"
     style="fill:none;stroke:#0000ff;stroke-width:0.09000007;stroke-linecap:round;stroke-linejoin:round;stroke-miterlimit:4;stroke-dasharray:none;stroke-opacity:1"
     d="m 942.03279,834.16269 10e-6,88.58275 m 88.5827,-88.58275 -88.58271,0" />
  <path
     id="face4-cut"
     style="fill:none;stroke:#0000ff;stroke-width:0.09000007;stroke-linecap:round;stroke-linejoin:round;stroke-miterlimit:4;stroke-dasharray:none;stroke-opacity:1"
     d="m 758.69687,834.1627 0,88.58274 m 88.58274,-88.58274 -88.58274,0"
     inkscape:connector-curvature="0" />
  <path
     id="face5-cut"
     style="fill:none;stroke:#0000ff;stroke-width:0.09000007;stroke-linecap:round;stroke-linejoin:round;stroke-miterlimit:4;stroke-dasharray:none;stroke-opacity:1"
     d="m 935.86235,1351.4859 0,-10.6299 m -88.58274,0 m 10e-6,10.6299"
     inkscape:connector-curvature="0" />
  <path
     id="face6-cut"
     style="fill:none;stroke:#0000ff;stroke-width:0.09000007;stroke-linecap:round;stroke-linejoin:round;stroke-miterlimit:4;stroke-dasharray:none;stroke-opacity:1"
     d="m 935.86236,834.16269 -88.58275,10e-6 m -88.58274,88.58274 10e-6,442.91366 177.16548,0 -10e-6,-14.1732 m -88.58273,0 m -10e-6,-10.6299 m 88.58274,0 10e-6,-248.0317 m -88.58274,0 m 0,-10.6299 m 88.58274,0 0,-248.03171"
     inkscape:connector-curvature="0" />
  <path
     id="face7-cut"
     style="fill:none;stroke:#0000ff;stroke-width:0.09000007;stroke-linecap:round;stroke-linejoin:round;stroke-miterlimit:4;stroke-dasharray:none;stroke-opacity:1"
     d="m 935.86236,1092.8243 0,-10.6299 m -88.58274,0 m 0,10.6299"
     inkscape:connector-curvature="0" />
  <path
     id="face8-cut"
     style="fill:none;stroke:#0000ff;stroke-width:0.09000007;stroke-linecap:round;stroke-linejoin:round;stroke-miterlimit:4;stroke-dasharray:none;stroke-opacity:1"
     d="m 574.71067,833.51243 -1e-5,88.58273 m 88.58275,-88.58274 -88.58274,10e-6"
     inkscape:connector-curvature="0" />
  <path
     id="face9-cut"
     style="fill:none;stroke:#0000ff;stroke-width:0.09000007;stroke-linecap:round;stroke-linejoin:round;stroke-miterlimit:4;stroke-dasharray:none;stroke-opacity:1"
     d="m 751.87615,1092.174 10e-6,-10.6299 m -88.58275,0 m 0,10.6299"
     inkscape:connector-curvature="0" />
  <path
     id="face10-cut"
     style="fill:none;stroke:#0000ff;stroke-width:0.09000007;stroke-linecap:round;stroke-linejoin:round;stroke-miterlimit:4;stroke-dasharray:none;stroke-opacity:1"
     d="m 751.87615,833.51241 -88.58274,10e-6 m -88.58275,88.58274 3e-5,442.91364 177.16547,10e-5 -10e-6,-14.1732 m -88.58274,0 m -2e-5,-10.63 m 88.58275,0 1e-5,-248.0317 m -88.58274,0 m 0,-10.6299 m 88.58275,0 -10e-6,-248.03169"
     inkscape:connector-curvature="0" />
  <path
     id="face11-cut"
     style="fill:none;stroke:#0000ff;stroke-width:0.09000007;stroke-linecap:round;stroke-linejoin:round;stroke-miterlimit:4;stroke-dasharray:none;stroke-opacity:1"
     d="m 751.87615,1350.8357 -1e-5,-10.63 m -88.58275,0 m 2e-5,10.63"
     inkscape:connector-curvature="0" />
  <path
     id="face21-cut-6"
     style="fill:none;stroke:#0000ff;stroke-width:0.09000007;stroke-linecap:round;stroke-linejoin:round;stroke-miterlimit:4;stroke-dasharray:none;stroke-opacity:1"
     d="m 566.63277,1350.1853 -6e-5,-10.6298 m -88.58272,-10e-5 m 0,10.63"
     inkscape:connector-curvature="0" />
  <path
     id="face22-cut-6"
     style="fill:none;stroke:#0000ff;stroke-width:0.09000007;stroke-linecap:round;stroke-linejoin:round;stroke-miterlimit:4;stroke-dasharray:none;stroke-opacity:1"
     d="m 566.63273,832.86214 -88.58276,-10e-6 m -88.58271,88.58275 5e-5,442.91362 177.16544,0 2e-5,-14.1732 m -88.58278,10e-5 m 0,-10.63 m 88.58272,10e-5 3e-5,-248.0317 m -88.58276,0 m -1e-5,-10.63 m 88.58277,0 -10e-6,-248.03166"
     inkscape:connector-curvature="0" />
  <path
     id="face23-cut-1"
     style="fill:none;stroke:#0000ff;stroke-width:0.09000007;stroke-linecap:round;stroke-linejoin:round;stroke-miterlimit:4;stroke-dasharray:none;stroke-opacity:1"
     d="m 566.63274,1091.5238 0,-10.63 m -88.58277,0 m 1e-5,10.63"
     inkscape:connector-curvature="0" />
  <path
     id="face24-cut-5"
     style="fill:none;stroke:#0000ff;stroke-width:0.09000007;stroke-linecap:round;stroke-linejoin:round;stroke-miterlimit:4;stroke-dasharray:none;stroke-opacity:1"
     d="m 389.46727,832.86213 -10e-6,88.58275 m 88.58271,-88.58275 -88.5827,0"
     inkscape:connector-curvature="0" />
  <path
     id="face25-cut-4"
     style="fill:none;stroke:#0000ff;stroke-width:0.09000007;stroke-linecap:round;stroke-linejoin:round;stroke-miterlimit:4;stroke-dasharray:none;stroke-opacity:1"
     d="m 383.94706,832.86213 -88.58267,-10e-6 m -88.58278,88.58276 -2e-5,442.91372 177.16546,0 2e-5,-14.1733 m -88.58268,10e-5 m -8e-5,-10.63 m 88.58274,0 -3e-5,-248.0316 m -88.5826,-10e-5 m 1e-5,-10.6299 m 88.58266,0 -3e-5,-248.03167"
     inkscape:connector-curvature="0" />
  <path
     id="face26-cut-1"
     style="fill:none;stroke:#0000ff;stroke-width:0.09000007;stroke-linecap:round;stroke-linejoin:round;stroke-miterlimit:4;stroke-dasharray:none;stroke-opacity:1"
     d="m 383.94702,1091.5238 7e-5,-10.63 m -88.58266,0 m -1e-5,10.6299"
     inkscape:connector-curvature="0" />
  <path
     id="face27-cut-7"
     style="fill:none;stroke:#0000ff;stroke-width:0.09000007;stroke-linecap:round;stroke-linejoin:round;stroke-miterlimit:4;stroke-dasharray:none;stroke-opacity:1"
     d="m 383.94707,1350.1853 -2e-5,-10.6299 m -88.58274,0 m 8e-5,10.63"
     inkscape:connector-curvature="0" />
  <path
     id="face28-cut-8"
     style="fill:none;stroke:#0000ff;stroke-width:0.09000007;stroke-linecap:round;stroke-linejoin:round;stroke-miterlimit:4;stroke-dasharray:none;stroke-opacity:1"
     d="m 206.78164,832.86211 -3e-5,88.58277 m 88.58278,-88.58276 -88.58275,-10e-6"
     inkscape:connector-curvature="0" />
  <path
     id="face38-cut"
     style="fill:none;stroke:#0000ff;stroke-width:0.09000007;stroke-linecap:round;stroke-linejoin:round;stroke-miterlimit:4;stroke-dasharray:none;stroke-opacity:1"
     d="m 199.2914,1349.6467 9e-5,-10.63 m -88.58279,1e-4 m 1e-4,10.6298"
     inkscape:connector-curvature="0" />
  <path
     id="face39-cut"
     style="fill:none;stroke:#0000ff;stroke-width:0.09000007;stroke-linecap:round;stroke-linejoin:round;stroke-miterlimit:4;stroke-dasharray:none;stroke-opacity:1"
     d="m 199.29151,1090.9851 -10e-5,-10.6299 m -88.58257,-10e-5 m -10e-5,10.63"
     inkscape:connector-curvature="0" />
  <path
     id="face40-cut"
     style="fill:none;stroke:#0000ff;stroke-width:0.09000007;stroke-linecap:round;stroke-linejoin:round;stroke-miterlimit:4;stroke-dasharray:none;stroke-opacity:1"
     d="m 199.29148,832.32341 -88.58271,2e-5 m -88.582651,88.5827 -9e-5,442.91387 177.165451,-2e-4 -8e-5,-14.1731 m -88.5826,-10e-5 m -1e-4,-10.6298 m 88.58279,-1e-4 2e-5,-248.0316 m -88.58277,0 m 10e-5,-10.63 m 88.58257,10e-5 7e-5,-248.03179"
     inkscape:connector-curvature="0" />
  <path
     id="face41-cut"
     style="fill:none;stroke:#0000ff;stroke-width:0.09000007;stroke-linecap:round;stroke-linejoin:round;stroke-miterlimit:4;stroke-dasharray:none;stroke-opacity:1"
     d="m 22.126149,832.32337 -3e-5,88.58276 m 88.582651,-88.5827 -88.582621,-6e-5"
     inkscape:connector-curvature="0" />
  <path
     inkscape:connector-curvature="0"
     id="face0-interior"
     style="fill:none;stroke:#0000ff;stroke-width:0.09000007;stroke-linecap:round;stroke-linejoin:round;stroke-miterlimit:4;stroke-dasharray:none;stroke-opacity:1"
     d="m 1119.1983,1092.8243 m 0,-10.6299 -88.5828,0 0,10.6299 88.5828,0" />
  <path
     inkscape:connector-curvature="0"
     id="face1-interior"
     style="fill:none;stroke:#0000ff;stroke-width:0.09000007;stroke-linecap:round;stroke-linejoin:round;stroke-miterlimit:4;stroke-dasharray:none;stroke-opacity:1"
     d="m 1119.1983,834.1627 m -88.5828,-10e-6 -88.5827,88.58275 m 0,442.91366 m 177.1655,0 m 0,-14.1732 -88.5828,0 0,-10.6299 88.5828,0 m 0,-248.0317 m -88.5828,0 m 0,-10.6299 m 88.5828,0" />
  <path
     inkscape:connector-curvature="0"
     id="face2-interior"
     style="fill:none;stroke:#0000ff;stroke-width:0.09000007;stroke-linecap:round;stroke-linejoin:round;stroke-miterlimit:4;stroke-dasharray:none;stroke-opacity:1"
     d="m 1119.1983,1351.4859 m 0,-10.6299 m -88.5828,0 m 0,10.6299" />
  <path
     inkscape:connector-curvature="0"
     id="face3-interior"
     style="fill:none;stroke:#0000ff;stroke-width:0.09000007;stroke-linecap:round;stroke-linejoin:round;stroke-miterlimit:4;stroke-dasharray:none;stroke-opacity:1"
     d="m 942.03279,834.16269 m 10e-6,88.58275 m 88.5827,-88.58275" />
  <path
     id="face4-interior"
     style="fill:none;stroke:#0000ff;stroke-width:0.09000007;stroke-linecap:round;stroke-linejoin:round;stroke-miterlimit:4;stroke-dasharray:none;stroke-opacity:1"
     d="m 758.69687,834.1627 m 0,88.58274 88.58274,-88.58274"
     inkscape:connector-curvature="0" />
  <path
     id="face5-interior"
     style="fill:none;stroke:#0000ff;stroke-width:0.09000007;stroke-linecap:round;stroke-linejoin:round;stroke-miterlimit:4;stroke-dasharray:none;stroke-opacity:1"
     d="m 935.86235,1351.4859 m 0,-10.6299 -88.58274,0 10e-6,10.6299 88.58273,0"
     inkscape:connector-curvature="0" />
  <path
     id="face6-interior"
     style="fill:none;stroke:#0000ff;stroke-width:0.09000007;stroke-linecap:round;stroke-linejoin:round;stroke-miterlimit:4;stroke-dasharray:none;stroke-opacity:1"
     d="m 935.86236,834.16269 m -88.58275,10e-6 m -88.58274,88.58274 m 10e-6,442.91366 m 177.16548,0 m -10e-6,-14.1732 m -88.58273,0 m -10e-6,-10.6299 m 88.58274,0 m 10e-6,-248.0317 -88.58274,0 0,-10.6299 88.58274,0"
     inkscape:connector-curvature="0" />
  <path
     id="face7-interior"
     style="fill:none;stroke:#0000ff;stroke-width:0.09000007;stroke-linecap:round;stroke-linejoin:round;stroke-miterlimit:4;stroke-dasharray:none;stroke-opacity:1"
     d="m 935.86236,1092.8243 m 0,-10.6299 m -88.58274,0 m 0,10.6299"
     inkscape:connector-curvature="0" />
  <path
     id="face8-interior"
     style="fill:none;stroke:#0000ff;stroke-width:0.09000007;stroke-linecap:round;stroke-linejoin:round;stroke-miterlimit:4;stroke-dasharray:none;stroke-opacity:1"
     d="m 574.71067,833.51243 m -1e-5,88.58273 88.58275,-88.58274"
     inkscape:connector-curvature="0" />
  <path
     id="face9-interior"
     style="fill:none;stroke:#0000ff;stroke-width:0.09000007;stroke-linecap:round;stroke-linejoin:round;stroke-miterlimit:4;stroke-dasharray:none;stroke-opacity:1"
     d="m 751.87615,1092.174 m 10e-6,-10.6299 -88.58275,0 0,10.6299 88.58274,0"
     inkscape:connector-curvature="0" />
  <path
     id="face10-interior"
     style="fill:none;stroke:#0000ff;stroke-width:0.09000007;stroke-linecap:round;stroke-linejoin:round;stroke-miterlimit:4;stroke-dasharray:none;stroke-opacity:1"
     d="m 751.87615,833.51241 m -88.58274,10e-6 m -88.58275,88.58274 m 3e-5,442.91364 m 177.16547,10e-5 m -10e-6,-14.1732 -88.58274,0 -2e-5,-10.63 88.58275,0 m 1e-5,-248.0317 m -88.58274,0 m 0,-10.6299 m 88.58275,0"
     inkscape:connector-curvature="0" />
  <path
     id="face11-interior"
     style="fill:none;stroke:#0000ff;stroke-width:0.09000007;stroke-linecap:round;stroke-linejoin:round;stroke-miterlimit:4;stroke-dasharray:none;stroke-opacity:1"
     d="m 751.87615,1350.8357 m -1e-5,-10.63 m -88.58275,0 m 2e-5,10.63"
     inkscape:connector-curvature="0" />
  <path
     id="face21-interior-0"
     style="fill:none;stroke:#0000ff;stroke-width:0.09000007;stroke-linecap:round;stroke-linejoin:round;stroke-miterlimit:4;stroke-dasharray:none;stroke-opacity:1"
     d="m 566.63277,1350.1853 m -6e-5,-10.6298 -88.58272,-10e-5 0,10.63 88.58278,-10e-5"
     inkscape:connector-curvature="0" />
  <path
     id="face22-interior-6"
     style="fill:none;stroke:#0000ff;stroke-width:0.09000007;stroke-linecap:round;stroke-linejoin:round;stroke-miterlimit:4;stroke-dasharray:none;stroke-opacity:1"
     d="m 566.63273,832.86214 m -88.58276,-10e-6 -88.58271,88.58275 m 5e-5,442.91362 m 177.16544,0 m 2e-5,-14.1732 m -88.58278,10e-5 m 0,-10.63 m 88.58272,10e-5 m 3e-5,-248.0317 -88.58276,0 -1e-5,-10.63 88.58277,0"
     inkscape:connector-curvature="0" />
  <path
     id="face23-interior-1"
     style="fill:none;stroke:#0000ff;stroke-width:0.09000007;stroke-linecap:round;stroke-linejoin:round;stroke-miterlimit:4;stroke-dasharray:none;stroke-opacity:1"
     d="m 566.63274,1091.5238 m 0,-10.63 m -88.58277,0 m 1e-5,10.63"
     inkscape:connector-curvature="0" />
  <path
     id="face24-interior-8"
     style="fill:none;stroke:#0000ff;stroke-width:0.09000007;stroke-linecap:round;stroke-linejoin:round;stroke-miterlimit:4;stroke-dasharray:none;stroke-opacity:1"
     d="m 389.46727,832.86213 m -10e-6,88.58275 m 88.58271,-88.58275"
     inkscape:connector-curvature="0" />
  <path
     id="face25-interior-7"
     style="fill:none;stroke:#0000ff;stroke-width:0.09000007;stroke-linecap:round;stroke-linejoin:round;stroke-miterlimit:4;stroke-dasharray:none;stroke-opacity:1"
     d="m 383.94706,832.86213 m -88.58267,-10e-6 -88.58278,88.58276 m -2e-5,442.91372 m 177.16546,0 m 2e-5,-14.1733 -88.58268,10e-5 -8e-5,-10.63 88.58274,0 m -3e-5,-248.0316 -88.5826,-10e-5 1e-5,-10.6299 88.58266,0"
     inkscape:connector-curvature="0" />
  <path
     id="face26-interior-4"
     style="fill:none;stroke:#0000ff;stroke-width:0.09000007;stroke-linecap:round;stroke-linejoin:round;stroke-miterlimit:4;stroke-dasharray:none;stroke-opacity:1"
     d="m 383.94702,1091.5238 m 7e-5,-10.63 m -88.58266,0 m -1e-5,10.6299"
     inkscape:connector-curvature="0" />
  <path
     id="face27-interior-4"
     style="fill:none;stroke:#0000ff;stroke-width:0.09000007;stroke-linecap:round;stroke-linejoin:round;stroke-miterlimit:4;stroke-dasharray:none;stroke-opacity:1"
     d="m 383.94707,1350.1853 m -2e-5,-10.6299 m -88.58274,0 m 8e-5,10.63"
     inkscape:connector-curvature="0" />
  <path
     id="face28-interior-4"
     style="fill:none;stroke:#0000ff;stroke-width:0.09000007;stroke-linecap:round;stroke-linejoin:round;stroke-miterlimit:4;stroke-dasharray:none;stroke-opacity:1"
     d="m 206.78164,832.86211 m -3e-5,88.58277 m 88.58278,-88.58276"
     inkscape:connector-curvature="0" />
  <path
     id="face38-interior"
     style="fill:none;stroke:#0000ff;stroke-width:0.09000007;stroke-linecap:round;stroke-linejoin:round;stroke-miterlimit:4;stroke-dasharray:none;stroke-opacity:1"
     d="m 199.2914,1349.6467 m 9e-5,-10.63 -88.58279,1e-4 1e-4,10.6298 88.5826,10e-5"
     inkscape:connector-curvature="0" />
  <path
     id="face39-interior"
     style="fill:none;stroke:#0000ff;stroke-width:0.09000007;stroke-linecap:round;stroke-linejoin:round;stroke-miterlimit:4;stroke-dasharray:none;stroke-opacity:1"
     d="m 199.29151,1090.9851 m -10e-5,-10.6299 -88.58257,-10e-5 -10e-5,10.63 88.58277,0"
     inkscape:connector-curvature="0" />
  <path
     id="face40-interior"
     style="fill:none;stroke:#0000ff;stroke-width:0.09000007;stroke-linecap:round;stroke-linejoin:round;stroke-miterlimit:4;stroke-dasharray:none;stroke-opacity:1"
     d="m 199.29148,832.32341 m -88.58271,2e-5 -88.582651,88.5827 m -9e-5,442.91387 m 177.165451,-2e-4 m -8e-5,-14.1731 m -88.5826,-10e-5 m -1e-4,-10.6298 m 88.58279,-1e-4 m 2e-5,-248.0316 m -88.58277,0 m 10e-5,-10.63 m 88.58257,10e-5"
     inkscape:connector-curvature="0" />
  <path
     id="face41-interior"
     style="fill:none;stroke:#0000ff;stroke-width:0.09000007;stroke-linecap:round;stroke-linejoin:round;stroke-miterlimit:4;stroke-dasharray:none;stroke-opacity:1"
     d="m 22.126149,832.32337 m -3e-5,88.58276 m 88.582651,-88.5827"
     inkscape:connector-curvature="0" />
  <path
     inkscape:connector-curvature="0"
     id="path4967"
     style="fill:none;stroke:#0000ff;stroke-width:0.09000007;stroke-linecap:round;stroke-linejoin:round;stroke-miterlimit:4;stroke-dasharray:none;stroke-opacity:1"
     d="m 1119.1983,1092.8243 m 0,-10.6299 m -88.5828,0 m 0,10.6299" />
  <path
     inkscape:connector-curvature="0"
     id="path4969"
     style="fill:none;stroke:#0000ff;stroke-width:0.09000007;stroke-linecap:round;stroke-linejoin:round;stroke-miterlimit:4;stroke-dasharray:none;stroke-opacity:1"
     d="m 1119.1983,834.1627 m -88.5828,-10e-6 m -88.5827,88.58275 m 0,442.91366 m 177.1655,0 m 0,-14.1732 m -88.5828,0 m 0,-10.6299 m 88.5828,0 m 0,-248.0317 m -88.5828,0 m 0,-10.6299 m 88.5828,0" />
  <path
     inkscape:connector-curvature="0"
     id="path4971"
     style="fill:none;stroke:#0000ff;stroke-width:0.09000007;stroke-linecap:round;stroke-linejoin:round;stroke-miterlimit:4;stroke-dasharray:none;stroke-opacity:1"
     d="m 1119.1983,1351.4859 m 0,-10.6299 m -88.5828,0 m 0,10.6299" />
  <path
     inkscape:connector-curvature="0"
     id="path4973"
     style="fill:none;stroke:#0000ff;stroke-width:0.09000007;stroke-linecap:round;stroke-linejoin:round;stroke-miterlimit:4;stroke-dasharray:none;stroke-opacity:1"
     d="m 942.03279,834.16269 m 10e-6,88.58275 m 88.5827,-88.58275" />
  <path
     id="path4975"
     style="fill:none;stroke:#0000ff;stroke-width:0.09000007;stroke-linecap:round;stroke-linejoin:round;stroke-miterlimit:4;stroke-dasharray:none;stroke-opacity:1"
     d="m 758.69687,834.1627 m 0,88.58274 m 88.58274,-88.58274"
     inkscape:connector-curvature="0" />
  <path
     id="path4977"
     style="fill:none;stroke:#0000ff;stroke-width:0.09000007;stroke-linecap:round;stroke-linejoin:round;stroke-miterlimit:4;stroke-dasharray:none;stroke-opacity:1"
     d="m 935.86235,1351.4859 m 0,-10.6299 m -88.58274,0 m 10e-6,10.6299"
     inkscape:connector-curvature="0" />
  <path
     id="path4979"
     style="fill:none;stroke:#0000ff;stroke-width:0.09000007;stroke-linecap:round;stroke-linejoin:round;stroke-miterlimit:4;stroke-dasharray:none;stroke-opacity:1"
     d="m 935.86236,834.16269 m -88.58275,10e-6 m -88.58274,88.58274 m 10e-6,442.91366 m 177.16548,0 m -10e-6,-14.1732 m -88.58273,0 m -10e-6,-10.6299 m 88.58274,0 m 10e-6,-248.0317 m -88.58274,0 m 0,-10.6299 m 88.58274,0"
     inkscape:connector-curvature="0" />
  <path
     id="path4981"
     style="fill:none;stroke:#0000ff;stroke-width:0.09000007;stroke-linecap:round;stroke-linejoin:round;stroke-miterlimit:4;stroke-dasharray:none;stroke-opacity:1"
     d="m 935.86236,1092.8243 m 0,-10.6299 m -88.58274,0 m 0,10.6299"
     inkscape:connector-curvature="0" />
  <path
     id="path4983"
     style="fill:none;stroke:#0000ff;stroke-width:0.09000007;stroke-linecap:round;stroke-linejoin:round;stroke-miterlimit:4;stroke-dasharray:none;stroke-opacity:1"
     d="m 574.71067,833.51243 m -1e-5,88.58273 m 88.58275,-88.58274"
     inkscape:connector-curvature="0" />
  <path
     id="path4985"
     style="fill:none;stroke:#0000ff;stroke-width:0.09000007;stroke-linecap:round;stroke-linejoin:round;stroke-miterlimit:4;stroke-dasharray:none;stroke-opacity:1"
     d="m 751.87615,1092.174 m 10e-6,-10.6299 m -88.58275,0 m 0,10.6299"
     inkscape:connector-curvature="0" />
  <path
     id="path4987"
     style="fill:none;stroke:#0000ff;stroke-width:0.09000007;stroke-linecap:round;stroke-linejoin:round;stroke-miterlimit:4;stroke-dasharray:none;stroke-opacity:1"
     d="m 751.87615,833.51241 m -88.58274,10e-6 m -88.58275,88.58274 m 3e-5,442.91364 m 177.16547,10e-5 m -10e-6,-14.1732 m -88.58274,0 m -2e-5,-10.63 m 88.58275,0 m 1e-5,-248.0317 m -88.58274,0 m 0,-10.6299 m 88.58275,0"
     inkscape:connector-curvature="0" />
  <path
     id="path4989"
     style="fill:none;stroke:#0000ff;stroke-width:0.09000007;stroke-linecap:round;stroke-linejoin:round;stroke-miterlimit:4;stroke-dasharray:none;stroke-opacity:1"
     d="m 751.87615,1350.8357 m -1e-5,-10.63 m -88.58275,0 m 2e-5,10.63"
     inkscape:connector-curvature="0" />
  <path
     id="path5009"
     style="fill:none;stroke:#0000ff;stroke-width:0.09000007;stroke-linecap:round;stroke-linejoin:round;stroke-miterlimit:4;stroke-dasharray:none;stroke-opacity:1"
     d="m 566.63277,1350.1853 m -6e-5,-10.6298 m -88.58272,-10e-5 m 0,10.63"
     inkscape:connector-curvature="0" />
  <path
     id="path5011"
     style="fill:none;stroke:#0000ff;stroke-width:0.09000007;stroke-linecap:round;stroke-linejoin:round;stroke-miterlimit:4;stroke-dasharray:none;stroke-opacity:1"
     d="m 566.63273,832.86214 m -88.58276,-10e-6 m -88.58271,88.58275 m 5e-5,442.91362 m 177.16544,0 m 2e-5,-14.1732 m -88.58278,10e-5 m 0,-10.63 m 88.58272,10e-5 m 3e-5,-248.0317 m -88.58276,0 m -1e-5,-10.63 m 88.58277,0"
     inkscape:connector-curvature="0" />
  <path
     id="path5013"
     style="fill:none;stroke:#0000ff;stroke-width:0.09000007;stroke-linecap:round;stroke-linejoin:round;stroke-miterlimit:4;stroke-dasharray:none;stroke-opacity:1"
     d="m 566.63274,1091.5238 m 0,-10.63 m -88.58277,0 m 1e-5,10.63"
     inkscape:connector-curvature="0" />
  <path
     id="path5015"
     style="fill:none;stroke:#0000ff;stroke-width:0.09000007;stroke-linecap:round;stroke-linejoin:round;stroke-miterlimit:4;stroke-dasharray:none;stroke-opacity:1"
     d="m 389.46727,832.86213 m -10e-6,88.58275 m 88.58271,-88.58275"
     inkscape:connector-curvature="0" />
  <path
     id="path5017"
     style="fill:none;stroke:#0000ff;stroke-width:0.09000007;stroke-linecap:round;stroke-linejoin:round;stroke-miterlimit:4;stroke-dasharray:none;stroke-opacity:1"
     d="m 383.94706,832.86213 m -88.58267,-10e-6 m -88.58278,88.58276 m -2e-5,442.91372 m 177.16546,0 m 2e-5,-14.1733 m -88.58268,10e-5 m -8e-5,-10.63 m 88.58274,0 m -3e-5,-248.0316 m -88.5826,-10e-5 m 1e-5,-10.6299 m 88.58266,0"
     inkscape:connector-curvature="0" />
  <path
     id="path5019"
     style="fill:none;stroke:#0000ff;stroke-width:0.09000007;stroke-linecap:round;stroke-linejoin:round;stroke-miterlimit:4;stroke-dasharray:none;stroke-opacity:1"
     d="m 383.94702,1091.5238 m 7e-5,-10.63 m -88.58266,0 m -1e-5,10.6299"
     inkscape:connector-curvature="0" />
  <path
     id="path5021"
     style="fill:none;stroke:#0000ff;stroke-width:0.09000007;stroke-linecap:round;stroke-linejoin:round;stroke-miterlimit:4;stroke-dasharray:none;stroke-opacity:1"
     d="m 383.94707,1350.1853 m -2e-5,-10.6299 m -88.58274,0 m 8e-5,10.63"
     inkscape:connector-curvature="0" />
  <path
     id="path5023"
     style="fill:none;stroke:#0000ff;stroke-width:0.09000007;stroke-linecap:round;stroke-linejoin:round;stroke-miterlimit:4;stroke-dasharray:none;stroke-opacity:1"
     d="m 206.78164,832.86211 m -3e-5,88.58277 m 88.58278,-88.58276"
     inkscape:connector-curvature="0" />
  <path
     id="path5043"
     style="fill:none;stroke:#0000ff;stroke-width:0.09000007;stroke-linecap:round;stroke-linejoin:round;stroke-miterlimit:4;stroke-dasharray:none;stroke-opacity:1"
     d="m 199.2914,1349.6467 m 9e-5,-10.63 m -88.58279,1e-4 m 1e-4,10.6298"
     inkscape:connector-curvature="0" />
  <path
     id="path5045"
     style="fill:none;stroke:#0000ff;stroke-width:0.09000007;stroke-linecap:round;stroke-linejoin:round;stroke-miterlimit:4;stroke-dasharray:none;stroke-opacity:1"
     d="m 199.29151,1090.9851 m -10e-5,-10.6299 m -88.58257,-10e-5 m -10e-5,10.63"
     inkscape:connector-curvature="0" />
  <path
     id="path5047"
     style="fill:none;stroke:#0000ff;stroke-width:0.09000007;stroke-linecap:round;stroke-linejoin:round;stroke-miterlimit:4;stroke-dasharray:none;stroke-opacity:1"
     d="m 199.29148,832.32341 m -88.58271,2e-5 m -88.582651,88.5827 m -9e-5,442.91387 m 177.165451,-2e-4 m -8e-5,-14.1731 m -88.5826,-10e-5 m -1e-4,-10.6298 m 88.58279,-1e-4 m 2e-5,-248.0316 m -88.58277,0 m 10e-5,-10.63 m 88.58257,10e-5"
     inkscape:connector-curvature="0" />
  <path
     id="path5049"
     style="fill:none;stroke:#0000ff;stroke-width:0.09000007;stroke-linecap:round;stroke-linejoin:round;stroke-miterlimit:4;stroke-dasharray:none;stroke-opacity:1"
     d="m 22.126149,832.32337 m -3e-5,88.58276 m 88.582651,-88.5827"
     inkscape:connector-curvature="0" />
  <path
     id="face12-cut"
     style="fill:none;stroke:#0000ff;stroke-width:0.09000007;stroke-linecap:round;stroke-linejoin:round;stroke-miterlimit:4;stroke-dasharray:none;stroke-opacity:1"
     d="m 26.37798,447.32312 0,19.41706 m 19.41701,-19.41706 -19.41701,0"
     inkscape:connector-curvature="0" />
  <path
     id="face13-cut"
     style="fill:none;stroke:#0000ff;stroke-width:0.09000007;stroke-linecap:round;stroke-linejoin:round;stroke-miterlimit:4;stroke-dasharray:none;stroke-opacity:1"
     d="m 384.25227,447.32312 -10.62993,0 m 0,88.58275 m 10.62993,0"
     inkscape:connector-curvature="0" />
  <path
     id="face14-cut"
     style="fill:none;stroke:#0000ff;stroke-width:0.09000007;stroke-linecap:round;stroke-linejoin:round;stroke-miterlimit:4;stroke-dasharray:none;stroke-opacity:1"
     d="m 1068.1111,447.32312 -25.007,0 m 25.007,25.00698 0,-25.00698"
     inkscape:connector-curvature="0" />
  <path
     id="face15-cut"
     style="fill:none;stroke:#0000ff;stroke-width:0.09000007;stroke-linecap:round;stroke-linejoin:round;stroke-miterlimit:4;stroke-dasharray:none;stroke-opacity:1"
     d="m 975.98497,447.32312 -10.6299,0 m 0,88.58275 m 10.6299,0"
     inkscape:connector-curvature="0" />
  <path
     id="face16-cut"
     style="fill:none;stroke:#0000ff;stroke-width:0.09000007;stroke-linecap:round;stroke-linejoin:round;stroke-miterlimit:4;stroke-dasharray:none;stroke-opacity:1"
     d="m 563.18937,447.32312 -10.6299,0 m 0,88.58275 m 10.6299,0"
     inkscape:connector-curvature="0" />
  <path
     id="face17-cut"
     style="fill:none;stroke:#0000ff;stroke-width:0.09000007;stroke-linecap:round;stroke-linejoin:round;stroke-miterlimit:4;stroke-dasharray:none;stroke-opacity:1"
     d="m 205.31512,447.32312 -10.62993,0 m 0,88.58275 m 10.62993,0"
     inkscape:connector-curvature="0" />
  <path
     id="face18-cut"
     style="fill:none;stroke:#0000ff;stroke-width:0.09000007;stroke-linecap:round;stroke-linejoin:round;stroke-miterlimit:4;stroke-dasharray:none;stroke-opacity:1"
     d="m 742.12657,447.32312 -10.6299,0 m 0,88.58275 m 10.6299,0"
     inkscape:connector-curvature="0" />
  <path
     id="face19-cut"
     style="fill:none;stroke:#0000ff;stroke-width:0.09000007;stroke-linecap:round;stroke-linejoin:round;stroke-miterlimit:4;stroke-dasharray:none;stroke-opacity:1"
     d="m 859.05577,447.32312 -10.6299,0 m 0,88.58275 m 10.6299,0"
     inkscape:connector-curvature="0" />
  <path
     id="face20-cut"
     style="fill:none;stroke:#0000ff;stroke-width:0.09000007;stroke-linecap:round;stroke-linejoin:round;stroke-miterlimit:4;stroke-dasharray:none;stroke-opacity:1"
     d="m 194.68519,447.32312 -148.8902,0 m -19.41701,19.41706 0,157.74844 1041.73312,0 0,-152.15852 m -25.007,-25.00698 -67.11913,0 m 0,88.58275 m -10.6299,0 m 0,-88.58275 -106.2993,0 m 0,88.58275 m -10.6299,0 m 0,-88.58275 -106.2993,0 m 0,88.58275 m -10.6299,0 m 0,-88.58275 -168.3073,0 m 0,88.58275 m -10.6299,0 m 0,-88.58275 -168.3072,0 m 0,88.58275 m -10.62993,0 m 0,-88.58275 -168.30722,0 m 0,88.58275 m -10.62993,0"
     inkscape:connector-curvature="0" />
  <path
     id="face29-cut"
     style="fill:none;stroke:#0000ff;stroke-width:0.09000007;stroke-linecap:round;stroke-linejoin:round;stroke-miterlimit:4;stroke-dasharray:none;stroke-opacity:1"
     d="m 1068.3725,806.51964 0,-152.43698 m -24.7806,-24.78056 -67.34553,0.0521 m 0,88.58275 m -10.6299,0 m 0,-88.58275 -106.2993,0 m 0,88.58275 m -10.6299,0 m 0,-88.58275 -106.2993,0 m 0,88.58275 m -10.6299,0 m 0,-88.58275 -168.3073,0 m 0,88.58275 m -10.6299,0 m 0,-88.58275 -168.30721,0 m 0,88.58275 m -10.62993,0 m 0,-88.58275 -168.30722,0 m 0,88.58275 m -10.62993,0 m 0,-88.58275 -168.30721,0 0,19.67959 0,157.48591 1041.73313,0"
     inkscape:connector-curvature="0" />
  <path
     id="face30-cut"
     style="fill:none;stroke:#0000ff;stroke-width:0.09000007;stroke-linecap:round;stroke-linejoin:round;stroke-miterlimit:4;stroke-dasharray:none;stroke-opacity:1"
     d="m 384.51366,629.35415 -10.62993,0 m 0,88.58275 m 10.62993,0"
     inkscape:connector-curvature="0" />
  <path
     id="face31-cut"
     style="fill:none;stroke:#0000ff;stroke-width:0.09000007;stroke-linecap:round;stroke-linejoin:round;stroke-miterlimit:4;stroke-dasharray:none;stroke-opacity:1"
     d="m 205.57651,629.35415 -10.62993,0 m 0,88.58275 m 10.62993,0"
     inkscape:connector-curvature="0" />
  <path
     id="face32-cut"
     style="fill:none;stroke:#0000ff;stroke-width:0.09000007;stroke-linecap:round;stroke-linejoin:round;stroke-miterlimit:4;stroke-dasharray:none;stroke-opacity:1"
     d="m 563.45077,629.35415 -10.6299,0 m 0,88.58275 m 10.6299,0"
     inkscape:connector-curvature="0" />
  <path
     id="face33-cut"
     style="fill:none;stroke:#0000ff;stroke-width:0.09000007;stroke-linecap:round;stroke-linejoin:round;stroke-miterlimit:4;stroke-dasharray:none;stroke-opacity:1"
     d="m 859.31717,629.35415 -10.6299,0 m 0,88.58275 m 10.6299,0"
     inkscape:connector-curvature="0" />
  <path
     id="face34-cut"
     style="fill:none;stroke:#0000ff;stroke-width:0.09000007;stroke-linecap:round;stroke-linejoin:round;stroke-miterlimit:4;stroke-dasharray:none;stroke-opacity:1"
     d="m 1068.3725,629.35415 -24.7806,-0.0521 m 24.7806,24.78057 0,-24.72852"
     inkscape:connector-curvature="0" />
  <path
     id="face35-cut"
     style="fill:none;stroke:#0000ff;stroke-width:0.09000007;stroke-linecap:round;stroke-linejoin:round;stroke-miterlimit:4;stroke-dasharray:none;stroke-opacity:1"
     d="m 742.38797,629.35415 -10.6299,0 m 0,88.58275 m 10.6299,0"
     inkscape:connector-curvature="0" />
  <path
     id="face36-cut"
     style="fill:none;stroke:#0000ff;stroke-width:0.09000007;stroke-linecap:round;stroke-linejoin:round;stroke-miterlimit:4;stroke-dasharray:none;stroke-opacity:1"
     d="m 976.24637,629.35415 -10.6299,0 m 0,88.58275 m 10.6299,0"
     inkscape:connector-curvature="0" />
  <path
     id="face37-cut"
     style="fill:none;stroke:#0000ff;stroke-width:0.09000007;stroke-linecap:round;stroke-linejoin:round;stroke-miterlimit:4;stroke-dasharray:none;stroke-opacity:1"
     d="M 26.63937,649.03373 M 46.05642,629.61667"
     inkscape:connector-curvature="0" />
  <path
     id="face12-interior"
     style="fill:none;stroke:#0000ff;stroke-width:0.09000007;stroke-linecap:round;stroke-linejoin:round;stroke-miterlimit:4;stroke-dasharray:none;stroke-opacity:1"
     d="m 26.37798,447.32312 m 0,19.41706 19.41701,-19.41706"
     inkscape:connector-curvature="0" />
  <path
     id="face13-interior"
     style="fill:none;stroke:#0000ff;stroke-width:0.09000007;stroke-linecap:round;stroke-linejoin:round;stroke-miterlimit:4;stroke-dasharray:none;stroke-opacity:1"
     d="m 384.25227,447.32312 m -10.62993,0 0,88.58275 10.62993,0 0,-88.58275"
     inkscape:connector-curvature="0" />
  <path
     id="face14-interior"
     style="fill:none;stroke:#0000ff;stroke-width:0.09000007;stroke-linecap:round;stroke-linejoin:round;stroke-miterlimit:4;stroke-dasharray:none;stroke-opacity:1"
     d="m 1068.1111,447.32312 m -25.007,0 25.007,25.00698"
     inkscape:connector-curvature="0" />
  <path
     id="face15-interior"
     style="fill:none;stroke:#0000ff;stroke-width:0.09000007;stroke-linecap:round;stroke-linejoin:round;stroke-miterlimit:4;stroke-dasharray:none;stroke-opacity:1"
     d="m 975.98497,447.32312 m -10.6299,0 0,88.58275 10.6299,0 0,-88.58275"
     inkscape:connector-curvature="0" />
  <path
     id="face16-interior"
     style="fill:none;stroke:#0000ff;stroke-width:0.09000007;stroke-linecap:round;stroke-linejoin:round;stroke-miterlimit:4;stroke-dasharray:none;stroke-opacity:1"
     d="m 563.18937,447.32312 m -10.6299,0 0,88.58275 10.6299,0 0,-88.58275"
     inkscape:connector-curvature="0" />
  <path
     id="face17-interior"
     style="fill:none;stroke:#0000ff;stroke-width:0.09000007;stroke-linecap:round;stroke-linejoin:round;stroke-miterlimit:4;stroke-dasharray:none;stroke-opacity:1"
     d="m 205.31512,447.32312 m -10.62993,0 0,88.58275 10.62993,0 0,-88.58275"
     inkscape:connector-curvature="0" />
  <path
     id="face18-interior"
     style="fill:none;stroke:#0000ff;stroke-width:0.09000007;stroke-linecap:round;stroke-linejoin:round;stroke-miterlimit:4;stroke-dasharray:none;stroke-opacity:1"
     d="m 742.12657,447.32312 m -10.6299,0 0,88.58275 10.6299,0 0,-88.58275"
     inkscape:connector-curvature="0" />
  <path
     id="face19-interior"
     style="fill:none;stroke:#0000ff;stroke-width:0.09000007;stroke-linecap:round;stroke-linejoin:round;stroke-miterlimit:4;stroke-dasharray:none;stroke-opacity:1"
     d="m 859.05577,447.32312 m -10.6299,0 0,88.58275 10.6299,0 0,-88.58275"
     inkscape:connector-curvature="0" />
  <path
     id="face20-interior"
     style="fill:none;stroke:#0000ff;stroke-width:0.09000007;stroke-linecap:round;stroke-linejoin:round;stroke-miterlimit:4;stroke-dasharray:none;stroke-opacity:1"
     d="m 194.68519,447.32312 m -148.8902,0 m -19.41701,19.41706 m 0,157.74844 m 1041.73312,0 m 0,-152.15852 m -25.007,-25.00698 m -67.11913,0 m 0,88.58275 m -10.6299,0 m 0,-88.58275 m -106.2993,0 m 0,88.58275 m -10.6299,0 m 0,-88.58275 m -106.2993,0 m 0,88.58275 m -10.6299,0 m 0,-88.58275 m -168.3073,0 m 0,88.58275 m -10.6299,0 m 0,-88.58275 m -168.3072,0 m 0,88.58275 m -10.62993,0 m 0,-88.58275 m -168.30722,0 m 0,88.58275 m -10.62993,0"
     inkscape:connector-curvature="0" />
  <path
     id="face29-interior"
     style="fill:none;stroke:#0000ff;stroke-width:0.09000007;stroke-linecap:round;stroke-linejoin:round;stroke-miterlimit:4;stroke-dasharray:none;stroke-opacity:1"
     d="m 1068.3725,806.51964 m 0,-152.43698 -24.7806,-24.78056 m -67.34553,0.0521 0,88.58275 -10.6299,0 0,-88.58275 m -106.2993,0 0,88.58275 -10.6299,0 0,-88.58275 m -106.2993,0 0,88.58275 -10.6299,0 0,-88.58275 m -168.3073,0 0,88.58275 -10.6299,0 0,-88.58275 m -168.30721,0 0,88.58275 -10.62993,0 0,-88.58275 m -168.30722,0 0,88.58275 -10.62993,0 0,-88.58275 m -168.30721,0 m 0,19.67959 m 0,157.48591"
     inkscape:connector-curvature="0" />
  <path
     id="face30-interior"
     style="fill:none;stroke:#0000ff;stroke-width:0.09000007;stroke-linecap:round;stroke-linejoin:round;stroke-miterlimit:4;stroke-dasharray:none;stroke-opacity:1"
     d="m 384.51366,629.35415 m -10.62993,0 m 0,88.58275 m 10.62993,0"
     inkscape:connector-curvature="0" />
  <path
     id="face31-interior"
     style="fill:none;stroke:#0000ff;stroke-width:0.09000007;stroke-linecap:round;stroke-linejoin:round;stroke-miterlimit:4;stroke-dasharray:none;stroke-opacity:1"
     d="m 205.57651,629.35415 m -10.62993,0 m 0,88.58275 m 10.62993,0"
     inkscape:connector-curvature="0" />
  <path
     id="face32-interior"
     style="fill:none;stroke:#0000ff;stroke-width:0.09000007;stroke-linecap:round;stroke-linejoin:round;stroke-miterlimit:4;stroke-dasharray:none;stroke-opacity:1"
     d="m 563.45077,629.35415 m -10.6299,0 m 0,88.58275 m 10.6299,0"
     inkscape:connector-curvature="0" />
  <path
     id="face33-interior"
     style="fill:none;stroke:#0000ff;stroke-width:0.09000007;stroke-linecap:round;stroke-linejoin:round;stroke-miterlimit:4;stroke-dasharray:none;stroke-opacity:1"
     d="m 859.31717,629.35415 m -10.6299,0 m 0,88.58275 m 10.6299,0"
     inkscape:connector-curvature="0" />
  <path
     id="face34-interior"
     style="fill:none;stroke:#0000ff;stroke-width:0.09000007;stroke-linecap:round;stroke-linejoin:round;stroke-miterlimit:4;stroke-dasharray:none;stroke-opacity:1"
     d="m 1068.3725,629.35415 m -24.7806,-0.0521 m 24.7806,24.78057"
     inkscape:connector-curvature="0" />
  <path
     id="face35-interior"
     style="fill:none;stroke:#0000ff;stroke-width:0.09000007;stroke-linecap:round;stroke-linejoin:round;stroke-miterlimit:4;stroke-dasharray:none;stroke-opacity:1"
     d="m 742.38797,629.35415 m -10.6299,0 m 0,88.58275 m 10.6299,0"
     inkscape:connector-curvature="0" />
  <path
     id="face36-interior"
     style="fill:none;stroke:#0000ff;stroke-width:0.09000007;stroke-linecap:round;stroke-linejoin:round;stroke-miterlimit:4;stroke-dasharray:none;stroke-opacity:1"
     d="m 976.24637,629.35415 m -10.6299,0 m 0,88.58275 m 10.6299,0"
     inkscape:connector-curvature="0" />
  <path
     id="face37-interior"
     style="fill:none;stroke:#0000ff;stroke-width:0.09000007;stroke-linecap:round;stroke-linejoin:round;stroke-miterlimit:4;stroke-dasharray:none;stroke-opacity:1"
     d="M 26.63937,649.03373 M 46.05642,629.61667"
     inkscape:connector-curvature="0" />
  <path
     id="path4991"
     style="fill:none;stroke:#0000ff;stroke-width:0.09000007;stroke-linecap:round;stroke-linejoin:round;stroke-miterlimit:4;stroke-dasharray:none;stroke-opacity:1"
     d="m 26.37798,447.32312 m 0,19.41706 m 19.41701,-19.41706"
     inkscape:connector-curvature="0" />
  <path
     id="path4993"
     style="fill:none;stroke:#0000ff;stroke-width:0.09000007;stroke-linecap:round;stroke-linejoin:round;stroke-miterlimit:4;stroke-dasharray:none;stroke-opacity:1"
     d="m 384.25227,447.32312 m -10.62993,0 m 0,88.58275 m 10.62993,0"
     inkscape:connector-curvature="0" />
  <path
     id="path4995"
     style="fill:none;stroke:#0000ff;stroke-width:0.09000007;stroke-linecap:round;stroke-linejoin:round;stroke-miterlimit:4;stroke-dasharray:none;stroke-opacity:1"
     d="m 1068.1111,447.32312 m -25.007,0 m 25.007,25.00698"
     inkscape:connector-curvature="0" />
  <path
     id="path4997"
     style="fill:none;stroke:#0000ff;stroke-width:0.09000007;stroke-linecap:round;stroke-linejoin:round;stroke-miterlimit:4;stroke-dasharray:none;stroke-opacity:1"
     d="m 975.98497,447.32312 m -10.6299,0 m 0,88.58275 m 10.6299,0"
     inkscape:connector-curvature="0" />
  <path
     id="path4999"
     style="fill:none;stroke:#0000ff;stroke-width:0.09000007;stroke-linecap:round;stroke-linejoin:round;stroke-miterlimit:4;stroke-dasharray:none;stroke-opacity:1"
     d="m 563.18937,447.32312 m -10.6299,0 m 0,88.58275 m 10.6299,0"
     inkscape:connector-curvature="0" />
  <path
     id="path5001"
     style="fill:none;stroke:#0000ff;stroke-width:0.09000007;stroke-linecap:round;stroke-linejoin:round;stroke-miterlimit:4;stroke-dasharray:none;stroke-opacity:1"
     d="m 205.31512,447.32312 m -10.62993,0 m 0,88.58275 m 10.62993,0"
     inkscape:connector-curvature="0" />
  <path
     id="path5003"
     style="fill:none;stroke:#0000ff;stroke-width:0.09000007;stroke-linecap:round;stroke-linejoin:round;stroke-miterlimit:4;stroke-dasharray:none;stroke-opacity:1"
     d="m 742.12657,447.32312 m -10.6299,0 m 0,88.58275 m 10.6299,0"
     inkscape:connector-curvature="0" />
  <path
     id="path5005"
     style="fill:none;stroke:#0000ff;stroke-width:0.09000007;stroke-linecap:round;stroke-linejoin:round;stroke-miterlimit:4;stroke-dasharray:none;stroke-opacity:1"
     d="m 859.05577,447.32312 m -10.6299,0 m 0,88.58275 m 10.6299,0"
     inkscape:connector-curvature="0" />
  <path
     id="path5007"
     style="fill:none;stroke:#0000ff;stroke-width:0.09000007;stroke-linecap:round;stroke-linejoin:round;stroke-miterlimit:4;stroke-dasharray:none;stroke-opacity:1"
     d="m 194.68519,447.32312 m -148.8902,0 m -19.41701,19.41706 m 0,157.74844 m 1041.73312,0 m 0,-152.15852 m -25.007,-25.00698 m -67.11913,0 m 0,88.58275 m -10.6299,0 m 0,-88.58275 m -106.2993,0 m 0,88.58275 m -10.6299,0 m 0,-88.58275 m -106.2993,0 m 0,88.58275 m -10.6299,0 m 0,-88.58275 m -168.3073,0 m 0,88.58275 m -10.6299,0 m 0,-88.58275 m -168.3072,0 m 0,88.58275 m -10.62993,0 m 0,-88.58275 m -168.30722,0 m 0,88.58275 m -10.62993,0"
     inkscape:connector-curvature="0" />
  <path
     id="path5025"
     style="fill:none;stroke:#0000ff;stroke-width:0.09000007;stroke-linecap:round;stroke-linejoin:round;stroke-miterlimit:4;stroke-dasharray:none;stroke-opacity:1"
     d="m 1068.3725,806.51964 m 0,-152.43698 m -24.7806,-24.78056 m -67.34553,0.0521 m 0,88.58275 m -10.6299,0 m 0,-88.58275 m -106.2993,0 m 0,88.58275 m -10.6299,0 m 0,-88.58275 m -106.2993,0 m 0,88.58275 m -10.6299,0 m 0,-88.58275 m -168.3073,0 m 0,88.58275 m -10.6299,0 m 0,-88.58275 m -168.30721,0 m 0,88.58275 m -10.62993,0 m 0,-88.58275 m -168.30722,0 m 0,88.58275 m -10.62993,0 m 0,-88.58275 m -168.30721,0 m 0,19.67959 m 0,157.48591"
     inkscape:connector-curvature="0" />
  <path
     id="path5027"
     style="fill:none;stroke:#0000ff;stroke-width:0.09000007;stroke-linecap:round;stroke-linejoin:round;stroke-miterlimit:4;stroke-dasharray:none;stroke-opacity:1"
     d="m 384.51366,629.35415 m -10.62993,0 m 0,88.58275 m 10.62993,0"
     inkscape:connector-curvature="0" />
  <path
     id="path5029"
     style="fill:none;stroke:#0000ff;stroke-width:0.09000007;stroke-linecap:round;stroke-linejoin:round;stroke-miterlimit:4;stroke-dasharray:none;stroke-opacity:1"
     d="m 205.57651,629.35415 m -10.62993,0 m 0,88.58275 m 10.62993,0"
     inkscape:connector-curvature="0" />
  <path
     id="path5031"
     style="fill:none;stroke:#0000ff;stroke-width:0.09000007;stroke-linecap:round;stroke-linejoin:round;stroke-miterlimit:4;stroke-dasharray:none;stroke-opacity:1"
     d="m 563.45077,629.35415 m -10.6299,0 m 0,88.58275 m 10.6299,0"
     inkscape:connector-curvature="0" />
  <path
     id="path5033"
     style="fill:none;stroke:#0000ff;stroke-width:0.09000007;stroke-linecap:round;stroke-linejoin:round;stroke-miterlimit:4;stroke-dasharray:none;stroke-opacity:1"
     d="m 859.31717,629.35415 m -10.6299,0 m 0,88.58275 m 10.6299,0"
     inkscape:connector-curvature="0" />
  <path
     id="path5035"
     style="fill:none;stroke:#0000ff;stroke-width:0.09000007;stroke-linecap:round;stroke-linejoin:round;stroke-miterlimit:4;stroke-dasharray:none;stroke-opacity:1"
     d="m 1068.3725,629.35415 m -24.7806,-0.0521 m 24.7806,24.78057"
     inkscape:connector-curvature="0" />
  <path
     id="path5037"
     style="fill:none;stroke:#0000ff;stroke-width:0.09000007;stroke-linecap:round;stroke-linejoin:round;stroke-miterlimit:4;stroke-dasharray:none;stroke-opacity:1"
     d="m 742.38797,629.35415 m -10.6299,0 m 0,88.58275 m 10.6299,0"
     inkscape:connector-curvature="0" />
  <path
     id="path5039"
     style="fill:none;stroke:#0000ff;stroke-width:0.09000007;stroke-linecap:round;stroke-linejoin:round;stroke-miterlimit:4;stroke-dasharray:none;stroke-opacity:1"
     d="m 976.24637,629.35415 m -10.6299,0 m 0,88.58275 m 10.6299,0"
     inkscape:connector-curvature="0" />
  <path
     id="path5041"
     style="fill:none;stroke:#0000ff;stroke-width:0.09000007;stroke-linecap:round;stroke-linejoin:round;stroke-miterlimit:4;stroke-dasharray:none;stroke-opacity:1"
     d="M 26.63937,649.03373 46.05642,629.61667 26.63937,649.03373"
     inkscape:connector-curvature="0" />
</svg>
