<?xml version="1.0" encoding="UTF-8" standalone="no"?>
<svg
   xmlns:dc="http://purl.org/dc/elements/1.1/"
   xmlns:cc="http://creativecommons.org/ns#"
   xmlns:rdf="http://www.w3.org/1999/02/22-rdf-syntax-ns#"
   xmlns:svg="http://www.w3.org/2000/svg"
   xmlns="http://www.w3.org/2000/svg"
   xmlns:sodipodi="http://sodipodi.sourceforge.net/DTD/sodipodi-0.dtd"
   xmlns:inkscape="http://www.inkscape.org/namespaces/inkscape"
   version="1.1"
   width="600mm"
   height="400mm"
   viewBox="0 0 2125.986 1417.324"
   id="svg2"
   inkscape:version="0.91 r13725"
   sodipodi:docname="side.svg">
  <metadata
     id="metadata32">
    <rdf:RDF>
      <cc:Work
         rdf:about="">
        <dc:format>image/svg+xml</dc:format>
        <dc:type
           rdf:resource="http://purl.org/dc/dcmitype/StillImage" />
        <dc:title></dc:title>
      </cc:Work>
    </rdf:RDF>
  </metadata>
  <defs
     id="defs30" />
  <sodipodi:namedview
     pagecolor="#ffffff"
     bordercolor="#666666"
     borderopacity="1"
     objecttolerance="10"
     gridtolerance="10"
     guidetolerance="10"
     inkscape:pageopacity="0"
     inkscape:pageshadow="2"
     inkscape:window-width="686"
     inkscape:window-height="403"
     id="namedview28"
     showgrid="false"
     inkscape:document-units="mm"
     inkscape:zoom="0.23558717"
     inkscape:cx="1356.6849"
     inkscape:cy="382.74777"
     inkscape:window-x="1157"
     inkscape:window-y="560"
     inkscape:window-maximized="0"
     inkscape:current-layer="svg2">
    <inkscape:grid
       type="xygrid"
       id="grid5960" />
  </sodipodi:namedview>
  <!-- Front-->
  <!-- Back-->
  <!-- Left-->
  <!-- Right-->
  <!-- Top-->
  <!-- Bottom-->
  <g
     transform="matrix(0,0.99999994,-1.0000001,0,1051.0685,-451.01041)"
     id="g12">
    <polygon
       style="fill:none;stroke:#000000;stroke-width:0.90000075"
       points="435.82713,21.25986 504.92167,21.25986 504.92167,0 552.75636,0 552.75636,60.23627 574.01622,60.23627 574.01622,120.47254 552.75636,120.47254 552.75636,162.99226 574.01622,162.99226 574.01622,205.51198 552.75636,205.51198 552.75636,248.0317 574.01622,248.0317 574.01622,290.55142 552.75636,290.55142 552.75636,333.07114 574.01622,333.07114 574.01622,375.59086 552.75636,375.59086 552.75636,418.11058 574.01622,418.11058 574.01622,460.6303 552.75636,460.6303 552.75636,503.15002 574.01622,503.15002 574.01622,545.66974 552.75636,545.66974 552.75636,588.18946 574.01622,588.18946 574.01622,630.70918 552.75636,630.70918 552.75636,673.2289 574.01622,673.2289 574.01622,715.74862 552.75636,715.74862 552.75636,758.26834 574.01622,758.26834 574.01622,800.78806 552.75636,800.78806 552.75636,843.30778 574.01622,843.30778 574.01622,885.8275 552.75636,885.8275 552.75636,928.34722 574.01622,928.34722 574.01622,970.86694 552.75636,970.86694 552.75636,1013.3867 574.01622,1013.3867 574.01622,1055.9064 552.75636,1055.9064 552.75636,1098.4261 574.01622,1098.4261 574.01622,1140.9458 552.75636,1140.9458 552.75636,1183.4655 574.01622,1183.4655 574.01622,1225.9853 552.75636,1225.9853 552.75636,1268.505 574.01622,1268.505 574.01622,1311.0247 552.75636,1311.0247 552.75636,1353.5444 574.01622,1353.5444 574.01622,1396.0641 552.75636,1396.0641 552.75636,1438.5839 574.01622,1438.5839 574.01622,1481.1036 552.75636,1481.1036 552.75636,1523.6233 574.01622,1523.6233 574.01622,1566.143 552.75636,1566.143 552.75636,1608.6627 574.01622,1608.6627 574.01622,1651.1825 552.75636,1651.1825 552.75636,1693.7022 574.01622,1693.7022 574.01622,1753.9385 552.75636,1753.9385 552.75636,1814.1747 504.92167,1814.1747 504.92167,1792.9149 435.82713,1792.9149 435.82713,1814.1747 393.30741,1814.1747 393.30741,1792.9149 350.78769,1792.9149 350.78769,1814.1747 308.26797,1814.1747 308.26797,1792.9149 265.74825,1792.9149 265.74825,1814.1747 223.22853,1814.1747 223.22853,1792.9149 180.70881,1792.9149 180.70881,1814.1747 138.18909,1814.1747 138.18909,1792.9149 69.094545,1792.9149 69.094545,1814.1747 21.25986,1814.1747 21.25986,1753.9385 0,1753.9385 0,1693.7022 21.25986,1693.7022 21.25986,1651.1825 0,1651.1825 0,1608.6627 21.25986,1608.6627 21.25986,1566.143 0,1566.143 0,1523.6233 21.25986,1523.6233 21.25986,1481.1036 0,1481.1036 0,1438.5839 21.25986,1438.5839 21.25986,1396.0641 0,1396.0641 0,1353.5444 21.25986,1353.5444 21.25986,1311.0247 0,1311.0247 0,1268.505 21.25986,1268.505 21.25986,1225.9853 0,1225.9853 0,1183.4655 21.25986,1183.4655 21.25986,1140.9458 0,1140.9458 0,1098.4261 21.25986,1098.4261 21.25986,1055.9064 0,1055.9064 0,1013.3867 21.25986,1013.3867 21.25986,970.86694 0,970.86694 0,928.34722 21.25986,928.34722 21.25986,885.8275 0,885.8275 0,843.30778 21.25986,843.30778 21.25986,800.78806 0,800.78806 0,758.26834 21.25986,758.26834 21.25986,715.74862 0,715.74862 0,673.2289 21.25986,673.2289 21.25986,630.70918 0,630.70918 0,588.18946 21.25986,588.18946 21.25986,545.66974 0,545.66974 0,503.15002 21.25986,503.15002 21.25986,460.6303 0,460.6303 0,418.11058 21.25986,418.11058 21.25986,375.59086 0,375.59086 0,333.07114 21.25986,333.07114 21.25986,290.55142 0,290.55142 0,248.0317 21.25986,248.0317 21.25986,205.51198 0,205.51198 0,162.99226 21.25986,162.99226 21.25986,120.47254 0,120.47254 0,60.23627 21.25986,60.23627 21.25986,0 69.094545,0 69.094545,21.25986 138.18909,21.25986 138.18909,0 180.70881,0 180.70881,21.25986 223.22853,21.25986 223.22853,0 265.74825,0 265.74825,21.25986 308.26797,21.25986 308.26797,0 350.78769,0 350.78769,21.25986 393.30741,21.25986 393.30741,0 435.82713,0 "
       id="polygon14"
       transform="translate(1060.6663,-780.83097)" />
  </g>
  <g
     transform="matrix(0,0.99999994,-1.0000001,0,1848.9692,16.607748)"
     id="g16">
    <polygon
       style="fill:none;stroke:#000000;stroke-width:0.90000075"
       points="435.82713,0 435.82713,21.25986 504.92167,21.25986 504.92167,0 552.75636,0 552.75636,60.23627 574.01622,60.23627 574.01622,120.47254 552.75636,120.47254 552.75636,162.99226 574.01622,162.99226 574.01622,205.51198 552.75636,205.51198 552.75636,248.0317 574.01622,248.0317 574.01622,290.55142 552.75636,290.55142 552.75636,333.07114 574.01622,333.07114 574.01622,375.59086 552.75636,375.59086 552.75636,418.11058 574.01622,418.11058 574.01622,460.6303 552.75636,460.6303 552.75636,503.15002 574.01622,503.15002 574.01622,545.66974 552.75636,545.66974 552.75636,588.18946 574.01622,588.18946 574.01622,630.70918 552.75636,630.70918 552.75636,673.2289 574.01622,673.2289 574.01622,715.74862 552.75636,715.74862 552.75636,758.26834 574.01622,758.26834 574.01622,800.78806 552.75636,800.78806 552.75636,843.30778 574.01622,843.30778 574.01622,885.8275 552.75636,885.8275 552.75636,928.34722 574.01622,928.34722 574.01622,970.86694 552.75636,970.86694 552.75636,1013.3867 574.01622,1013.3867 574.01622,1055.9064 552.75636,1055.9064 552.75636,1098.4261 574.01622,1098.4261 574.01622,1140.9458 552.75636,1140.9458 552.75636,1183.4655 574.01622,1183.4655 574.01622,1225.9853 552.75636,1225.9853 552.75636,1268.505 574.01622,1268.505 574.01622,1311.0247 552.75636,1311.0247 552.75636,1353.5444 574.01622,1353.5444 574.01622,1396.0641 552.75636,1396.0641 552.75636,1438.5839 574.01622,1438.5839 574.01622,1481.1036 552.75636,1481.1036 552.75636,1523.6233 574.01622,1523.6233 574.01622,1566.143 552.75636,1566.143 552.75636,1608.6627 574.01622,1608.6627 574.01622,1651.1825 552.75636,1651.1825 552.75636,1693.7022 574.01622,1693.7022 574.01622,1753.9385 552.75636,1753.9385 552.75636,1814.1747 504.92167,1814.1747 504.92167,1792.9149 435.82713,1792.9149 435.82713,1814.1747 393.30741,1814.1747 393.30741,1792.9149 350.78769,1792.9149 350.78769,1814.1747 308.26797,1814.1747 308.26797,1792.9149 265.74825,1792.9149 265.74825,1814.1747 223.22853,1814.1747 223.22853,1792.9149 180.70881,1792.9149 180.70881,1814.1747 138.18909,1814.1747 138.18909,1792.9149 69.094545,1792.9149 69.094545,1814.1747 21.25986,1814.1747 21.25986,1753.9385 0,1753.9385 0,1693.7022 21.25986,1693.7022 21.25986,1651.1825 0,1651.1825 0,1608.6627 21.25986,1608.6627 21.25986,1566.143 0,1566.143 0,1523.6233 21.25986,1523.6233 21.25986,1481.1036 0,1481.1036 0,1438.5839 21.25986,1438.5839 21.25986,1396.0641 0,1396.0641 0,1353.5444 21.25986,1353.5444 21.25986,1311.0247 0,1311.0247 0,1268.505 21.25986,1268.505 21.25986,1225.9853 0,1225.9853 0,1183.4655 21.25986,1183.4655 21.25986,1140.9458 0,1140.9458 0,1098.4261 21.25986,1098.4261 21.25986,1055.9064 0,1055.9064 0,1013.3867 21.25986,1013.3867 21.25986,970.86694 0,970.86694 0,928.34722 21.25986,928.34722 21.25986,885.8275 0,885.8275 0,843.30778 21.25986,843.30778 21.25986,800.78806 0,800.78806 0,758.26834 21.25986,758.26834 21.25986,715.74862 0,715.74862 0,673.2289 21.25986,673.2289 21.25986,630.70918 0,630.70918 0,588.18946 21.25986,588.18946 21.25986,545.66974 0,545.66974 0,503.15002 21.25986,503.15002 21.25986,460.6303 0,460.6303 0,418.11058 21.25986,418.11058 21.25986,375.59086 0,375.59086 0,333.07114 21.25986,333.07114 21.25986,290.55142 0,290.55142 0,248.0317 21.25986,248.0317 21.25986,205.51198 0,205.51198 0,162.99226 21.25986,162.99226 21.25986,120.47254 0,120.47254 0,60.23627 21.25986,60.23627 21.25986,0 69.094545,0 69.094545,21.25986 138.18909,21.25986 138.18909,0 180.70881,0 180.70881,21.25986 223.22853,21.25986 223.22853,0 265.74825,0 265.74825,21.25986 308.26797,21.25986 308.26797,0 350.78769,0 350.78769,21.25986 393.30741,21.25986 393.30741,0 "
       id="polygon18"
       transform="translate(0,18.008808)" />
  </g>
  <path
     style="fill:none;fill-rule:evenodd;stroke:#000000;stroke-width:2.24915314px;stroke-linecap:butt;stroke-linejoin:miter;stroke-opacity:1"
     d="m 38.454863,218.22822 1770.543337,0"
     id="path5930-1"
     inkscape:connector-curvature="0" />
  <path
     style="fill:none;fill-rule:evenodd;stroke:#000000;stroke-width:2.27615738px;stroke-linecap:butt;stroke-linejoin:miter;stroke-opacity:1"
     d="m 24.389455,811.41523 1813.315845,0"
     id="path5930-1-3"
     inkscape:connector-curvature="0" />
</svg>
